…
After gathering the data from the columns to rows, the second issue is to index the numbers by the corresponding provinces. This is achieved by replicating the provinces to span the length of the numbers. Combining the row names with their corresponding numbers completes our simple data extraction exercise.

library(tidyverse)  # install.packages('tidyverse') This will install the tidyverse
cso_data <- cso_data %>% as.tibble()  # converting to a tibble
cso_provincial <- cso_data %>% filter(sex == "Total") %>% select(`2011`:`2035`) %>% 
    gather(key = "year", value = "census_proj")

province <- rep(c("central", "copperbelt", "eastern", "luapula", "lusaka", "muchinga", 
    "northern", "north.western", "southern", "western"), 6)

cso_transformed <- cbind(cso_provincial, province) %>% select(year, province, 
    census_proj) %>% as.tibble()
cso_transformed

## # A tibble: 60 x 3
##    year  province      census_proj
##    <chr> <fct>         <chr>      
##  1 2011  central       1,355,775  
##  2 2011  copperbelt    2,143,413  
##  3 2011  eastern       1,628,880  
##  4 2011  luapula       1,015,629  
##  5 2011  lusaka        2,362,967  
##  6 2011  muchinga      749,449    
##  7 2011  northern      1,146,392  
##  8 2011  north.western 746,982    
##  9 2011  southern      1,642,757  
## 10 2011  western       926,478    
## # ... with 50 more rows
…
