Breathing life back into PDF presented Data | Aaron Simumba
…
cso_transformed <- cbind(cso_provincial, province) %>%
  select(year, province, census_proj) %>%
  as_tibble()

cso_transformed

## # A tibble: 60 × 3
##    year  province      census_proj
##    <chr> <chr>         <chr>      
##  1 2011  central       1,355,775  
##  2 2011  copperbelt    2,143,413  
##  3 2011  eastern       1,628,880  
##  4 2011  luapula       1,015,629  
##  5 2011  lusaka        2,362,967  
##  6 2011  muchinga      749,449    
##  7 2011  northern      1,146,392  
##  8 2011  north.western 746,982    
##  9 2011  southern      1,642,757  
## 10 2011  western       926,478    
## # … with 50 more rows
…
